%YAML 1.1
%TAG !u! tag:unity3d.com,2011:
--- !u!162 &1
EditorUserSettings:
  m_ObjectHideFlags: 0
  serializedVersion: 4
  m_ConfigSettings:
    RecentlyUsedScenePath-0:
      value: 22424703114646680e0b0227036c7c181705191929242333391a1e36ece57a2decee22f0
      flags: 0
    RecentlyUsedScenePath-1:
      value: 22424703114646680e0b0227036c78111b12352b252615332827187df7ee3d2cfb
      flags: 0
    RecentlyUsedScenePath-2:
      value: 22424703114646680e0b0227036c0e5e39070c23232615332827187df7ee3d2cfb
      flags: 0
    RecentlyUsedScenePath-3:
      value: 22424703114646680e0b0227036c0c5e351f19382d1b233c282a0900e1e53a3dacf238e0f323
      flags: 0
    RecentlyUsedScenePath-4:
      value: 22424703114646680e0b0227036c0a5e35051d2e253c15332827187df7ee3d2cfb
      flags: 0
    RecentlyUsedScenePath-5:
      value: 22424703114646680e0b0227036c6b150503563f22213229
      flags: 0
    RecentlyUsedScenePath-6:
      value: 22424703114646680e0b0227036c6b150503571e293b327e38271427fb
      flags: 0
    RecentlyUsedScenePath-7:
      value: 22424703114646680e0b0227036c0f5e221e0c26291b2535232c5326ece92021
      flags: 0
    RecentlyUsedScenePath-8:
      value: 22424703114646680e0b0227036c0d5e261b1933293a0831202c2e30e7ee3176f7e93ffdfe
      flags: 0
    RecentlyUsedScenePath-9:
      value: 22424703114646680e0b0227036c0b5e3116152f01292f3e1e2a183de7ae2136ebf32f
      flags: 0
    vcSharedLogLevel:
      value: 0d5e400f0650
      flags: 0
  m_VCAutomaticAdd: 1
  m_VCDebugCom: 0
  m_VCDebugCmd: 0
  m_VCDebugOut: 0
  m_SemanticMergeMode: 2
  m_VCShowFailedCheckout: 1
  m_VCOverwriteFailedCheckoutAssets: 1
  m_VCProjectOverlayIcons: 1
  m_VCHierarchyOverlayIcons: 1
  m_VCOtherOverlayIcons: 1
  m_VCAllowAsyncUpdate: 1
